<?xml version="1.0" encoding="UTF-8" standalone="no"?>
<Solution>
<Stream id="Stream0">
<Route WCD="986.0">
<Link dest="SW1" src="ES1"/>
<Link dest="SW2" src="SW1"/>
<Link dest="SW5" src="SW2"/>
<Link dest="ES4" src="SW5"/>
</Route>
<Route WCD="1380.3999999999999">
<Link dest="SW1" src="ES1"/>
<Link dest="SW2" src="SW1"/>
<Link dest="SW4" src="SW2"/>
<Link dest="SW6" src="SW4"/>
<Link dest="SW5" src="SW6"/>
<Link dest="ES4" src="SW5"/>
</Route>
<Route WCD="788.8">
<Link dest="SW1" src="ES1"/>
<Link dest="SW5" src="SW1"/>
<Link dest="ES4" src="SW5"/>
</Route>
</Stream>
<Stream id="Stream1">
<Route WCD="986.0">
<Link dest="SW2" src="ES2"/>
<Link dest="SW4" src="SW2"/>
<Link dest="SW6" src="SW4"/>
<Link dest="ES5" src="SW6"/>
</Route>
<Route WCD="986.0">
<Link dest="SW2" src="ES2"/>
<Link dest="SW7" src="SW2"/>
<Link dest="SW6" src="SW7"/>
<Link dest="ES5" src="SW6"/>
</Route>
</Stream>
<Stream id="Stream2">
<Route WCD="986.0">
<Link dest="SW3" src="ES3"/>
<Link dest="SW2" src="SW3"/>
<Link dest="SW5" src="SW2"/>
<Link dest="ES4" src="SW5"/>
</Route>
<Route WCD="1183.1999999999998">
<Link dest="SW3" src="ES3"/>
<Link dest="SW7" src="SW3"/>
<Link dest="SW6" src="SW7"/>
<Link dest="SW5" src="SW6"/>
<Link dest="ES4" src="SW5"/>
</Route>
<Route WCD="1183.1999999999998">
<Link dest="SW3" src="ES3"/>
<Link dest="SW2" src="SW3"/>
<Link dest="SW1" src="SW2"/>
<Link dest="SW5" src="SW1"/>
<Link dest="ES4" src="SW5"/>
</Route>
</Stream>
<Stream id="Stream3">
<Route WCD="1183.1999999999998">
<Link dest="SW1" src="ES1"/>
<Link dest="SW2" src="SW1"/>
<Link dest="SW7" src="SW2"/>
<Link dest="SW6" src="SW7"/>
<Link dest="ES5" src="SW6"/>
</Route>
</Stream>
<Stream id="Stream4">
<Route WCD="788.8">
<Link dest="SW2" src="ES2"/>
<Link dest="SW7" src="SW2"/>
<Link dest="ES6" src="SW7"/>
</Route>
</Stream>
<Stream id="Stream5">
<Route WCD="986.0">
<Link dest="SW3" src="ES3"/>
<Link dest="SW2" src="SW3"/>
<Link dest="SW5" src="SW2"/>
<Link dest="ES4" src="SW5"/>
</Route>
</Stream>
<Stream id="Stream6">
<Route WCD="986.0">
<Link dest="SW1" src="ES1"/>
<Link dest="SW2" src="SW1"/>
<Link dest="SW7" src="SW2"/>
<Link dest="ES6" src="SW7"/>
</Route>
</Stream>
<Stream id="Stream7">
<Route WCD="788.8">
<Link dest="SW2" src="ES2"/>
<Link dest="SW5" src="SW2"/>
<Link dest="ES4" src="SW5"/>
</Route>
</Stream>
<Stream id="Stream8">
<Route WCD="986.0">
<Link dest="SW3" src="ES3"/>
<Link dest="SW7" src="SW3"/>
<Link dest="SW6" src="SW7"/>
<Link dest="ES5" src="SW6"/>
</Route>
</Stream>
</Solution>
